{
  "project_info": {
    "project_number": "27416577776",
    "firebase_url": "https://tec-tejinder-english-classes.firebaseio.com",
    "project_id": "tec-tejinder-english-classes",
    "storage_bucket": "tec-tejinder-english-classes.appspot.com"
  },
  "client": [
    {
      "client_info": {
        "mobilesdk_app_id": "1:27416577776:android:9953d0f8529d7d35dbe435",
        "android_client_info": {
          "package_name": "com.webtunix.techapp"
        }
      },
      "oauth_client": [
        {
          "client_id": "27416577776-nvclvcbkcp1jdheqcs40vka85pdg7v0l.apps.googleusercontent.com",
          "client_type": 3
        }
      ],
      "api_key": [
        {
          "current_key": "AIzaSyCIFpSs_lmb7EibLvKFdJd31BBl71nnsag"
        }
      ],
      "services": {
        "appinvite_service": {
          "other_platform_oauth_client": [
            {
              "client_id": "27416577776-nvclvcbkcp1jdheqcs40vka85pdg7v0l.apps.googleusercontent.com",
              "client_type": 3
            }
          ]
        }
      }
    }
  ],
  "configuration_version": "1"
}